<svg xmlns="http://www.w3.org/2000/svg" width="18.801" height="17.196" viewBox="0 0 18.801 17.196">
    <g data-name="Group 104">
        <path d="M18.577 9.703a.769.769 0 0 0-.529-.2h-2.632V6.432l2.033-1.806a.607.607 0 0 0 0-.941.8.8 0 0 0-1.057 0l-2.033 1.808H4.442L2.409 3.684a.769.769 0 0 0-.529-.2.77.77 0 0 0-.529.2.607.607 0 0 0 0 .941l2.033 1.808v3.072H.752a.769.769 0 0 0-.529.2.607.607 0 0 0 0 .94.769.769 0 0 0 .529.2h2.632a5.676 5.676 0 0 0 .682 2.863l-2.374 2.369a.62.62 0 0 0-.182.486.642.642 0 0 0 .241.465.821.821 0 0 0 .505.167.8.8 0 0 0 .564-.219l2.15-2.163.176.147a4.127 4.127 0 0 0 .511.339q.347.2.775.408a5.192 5.192 0 0 0 1.022.345 5.134 5.134 0 0 0 1.193.141V6.826h1.5v9.363a4.942 4.942 0 0 0 1.14-.136 5.869 5.869 0 0 0 .964-.3 7.741 7.741 0 0 0 .764-.381q.376-.214.493-.3a2.22 2.22 0 0 0 .176-.136l2.327 2.059a.8.8 0 0 0 1.058 0 .607.607 0 0 0 0-.941l-2.444-2.184a5.552 5.552 0 0 0 .787-3.03h2.632a.769.769 0 0 0 .529-.2.606.606 0 0 0 0-.941z" data-name="Path 209"/>
        <path d="M12.484 1.273a4.356 4.356 0 0 0-7.44 3.084h8.712a4.2 4.2 0 0 0-1.272-3.084z" data-name="Path 210"/>
    </g>
</svg>
