<svg xmlns="http://www.w3.org/2000/svg" width="27.087" height="30.819" viewBox="0 0 27.087 30.819">
    <defs>
        <style>
            .prefix__cls-1{fill:#09f}
        </style>
    </defs>
    <g id="prefix__user_5_" data-name="user (5)" transform="translate(-30.999)">
        <g id="prefix__Group_807" data-name="Group 807" transform="translate(36.416)">
            <g id="prefix__Group_806" data-name="Group 806">
                <path id="prefix__Path_2623" d="M129.125 0a8.126 8.126 0 1 0 8.126 8.126A8.135 8.135 0 0 0 129.125 0z" class="prefix__cls-1" data-name="Path 2623" transform="translate(-120.999)"/>
            </g>
        </g>
        <g id="prefix__Group_809" data-name="Group 809" transform="translate(30.999 18.178)">
            <g id="prefix__Group_808" data-name="Group 808">
                <path id="prefix__Path_2624" d="M57.934 307.819A13.042 13.042 0 0 0 47.061 302h-5.037a13.042 13.042 0 0 0-10.874 5.819l-.152.227v6.594h27.088v-6.594z" class="prefix__cls-1" data-name="Path 2624" transform="translate(-30.999 -302)"/>
            </g>
        </g>
    </g>
</svg>
